{
  "bad6abe0-d4ab-37e8-ab00-f26c177d22b2": {
    "name": "Alexis Basley",
    "account_id": "bad6abe0-d4ab-37e8-ab00-f26c177d22b2",
    "bank_id": "00100"
  },
  "850d55e0-4b18-39b2-ba1c-3dec2ea97b03": {
    "name": "Maxime Barbet",
    "account_id": "850d55e0-4b18-39b2-ba1c-3dec2ea97b03",
    "bank_id": "00100"
  },
  "66b801a9-4c15-376c-9d81-a2739c03166a": {
    "name": "Yoni Boukhobza",
    "account_id": "66b801a9-4c15-376c-9d81-a2739c03166a",
    "bank_id": "00100"
  },
  "9668932b-af6b-3cca-9a10-796b6e04aeeb": {
    "name": "Camille Milleville",
    "account_id": "9668932b-af6b-3cca-9a10-796b6e04aeeb",
    "bank_id": "00100"
  },
  "4ba031bd-949f-3598-b481-0e7727f390d3": {
    "name": "Matthieu Dubois",
    "account_id": "4ba031bd-949f-3598-b481-0e7727f390d3",
    "bank_id": "00100"
  },
  "aea5ac8b-1b5e-3e0d-920e-847e303b11cb": {
    "name": "Yann Nouve",
    "account_id": "aea5ac8b-1b5e-3e0d-920e-847e303b11cb",
    "bank_id": "00100"
  }
}
